<?xml version="1.0" encoding="UTF-8" standalone="no"?>
<!-- Created with Inkscape (http://www.inkscape.org/) -->

<svg
   xmlns:dc="http://purl.org/dc/elements/1.1/"
   xmlns:cc="http://creativecommons.org/ns#"
   xmlns:rdf="http://www.w3.org/1999/02/22-rdf-syntax-ns#"
   xmlns:svg="http://www.w3.org/2000/svg"
   xmlns="http://www.w3.org/2000/svg"
   xmlns:sodipodi="http://sodipodi.sourceforge.net/DTD/sodipodi-0.dtd"
   xmlns:inkscape="http://www.inkscape.org/namespaces/inkscape"
   width="210mm"
   height="297mm"
   viewBox="0 0 210 297"
   version="1.1"
   id="svg8"
   inkscape:version="0.92.4 (unknown)"
   sodipodi:docname="Zeichnung.svg">
  <defs
     id="defs2" />
  <sodipodi:namedview
     id="base"
     pagecolor="#ffffff"
     bordercolor="#666666"
     borderopacity="1.0"
     inkscape:pageopacity="0.0"
     inkscape:pageshadow="2"
     inkscape:zoom="1.4"
     inkscape:cx="448.34963"
     inkscape:cy="359.60445"
     inkscape:document-units="mm"
     inkscape:current-layer="layer1"
     showgrid="false"
     inkscape:snap-bbox="true"
     inkscape:snap-global="false"
     inkscape:bbox-paths="true"
     inkscape:window-width="1680"
     inkscape:window-height="953"
     inkscape:window-x="0"
     inkscape:window-y="27"
     inkscape:window-maximized="1" />
  <metadata
     id="metadata5">
    <rdf:RDF>
      <cc:Work
         rdf:about="">
        <dc:format>image/svg+xml</dc:format>
        <dc:type
           rdf:resource="http://purl.org/dc/dcmitype/StillImage" />
        <dc:title></dc:title>
      </cc:Work>
    </rdf:RDF>
  </metadata>
  <g
     inkscape:label="Ebene 1"
     inkscape:groupmode="layer"
     id="layer1">
    <rect
       style="opacity:1;fill:#000000;fill-opacity:1;stroke:none;stroke-width:0.40000001;stroke-miterlimit:4;stroke-dasharray:none;stroke-opacity:1"
       id="rect1014"
       width="75.973213"
       height="61.421127"
       x="59.153278"
       y="200.52158" />
    <rect
       style="opacity:1;fill:#000000;fill-opacity:1;stroke:none;stroke-width:0.40000001;stroke-miterlimit:4;stroke-dasharray:none;stroke-opacity:1"
       id="rect873"
       width="94.494049"
       height="151.56845"
       x="25.702381"
       y="38.842262" />
    <g
       id="g871"
       style="fill:#ff0000" />
    <g
       id="g888">
      <rect
         ry="2.2678571"
         y="131.25745"
         x="61.240215"
         height="6.4255953"
         width="35.136047"
         id="rect815"
         style="opacity:1;fill:#0000ff;fill-opacity:1;stroke:none;stroke-width:0.3565425;stroke-miterlimit:4;stroke-dasharray:none;stroke-opacity:1" />
      <path
         inkscape:connector-curvature="0"
         style="fill:#ff0000;opacity:1;fill-opacity:1;stroke:none;stroke-width:0.38951465;stroke-miterlimit:4;stroke-dasharray:none;stroke-opacity:1"
         d="m 71.248753,72.671016 v 7.800041 l 2.176094,1.025776 -2.176094,4.615222 v 29.300535 l 1.970421,1.44797 -1.490864,2.02882 0.892969,0.45579 -1.372526,2.68924 v 9.41751 H 86.367724 V 103.5327 l -1.969905,-3.942397 1.21388,-0.606682 -1.606619,-1.493448 2.362644,-2.541963 V 72.671016 Z"
         id="rect817" />
      <path
         style="fill:#ff0000;stroke:none;stroke-width:0.26458332px;stroke-linecap:butt;stroke-linejoin:miter;stroke-opacity:1"
         d="m 79.591175,62.838192 -2.334741,1.162201 -5.991366,8.687326 H 86.38404 Z"
         id="path819"
         inkscape:connector-curvature="0" />
      <rect
         y="137.53185"
         x="75.648705"
         height="18.331844"
         width="6.3190608"
         id="rect865"
         style="opacity:1;fill:#ffffff;fill-opacity:1;stroke:none;stroke-width:0.30305475;stroke-miterlimit:4;stroke-dasharray:none;stroke-opacity:1" />
      <path
         sodipodi:nodetypes="cccccc"
         inkscape:connector-curvature="0"
         id="path867"
         d="m 75.648506,155.86369 -2.908246,4.16914 6.100355,5.30462 6.035602,-5.30462 -2.90865,-4.16914 z"
         style="fill:#00ff00;stroke:none;stroke-width:0.22403428px;stroke-linecap:butt;stroke-linejoin:miter;stroke-opacity:1" />
    </g>
    <rect
       style="opacity:1;fill:#000000;fill-opacity:1;stroke:none;stroke-width:0.40000001;stroke-miterlimit:4;stroke-dasharray:none;stroke-opacity:1"
       id="rect875"
       width="100.35268"
       height="109.80208"
       x="129.64583"
       y="85.900291"
       ry="0" />
    <rect
       style="opacity:1;fill:#ffffff;fill-opacity:1;stroke:none;stroke-width:0.40000001;stroke-miterlimit:4;stroke-dasharray:none;stroke-opacity:1"
       id="rect877"
       width="24.757439"
       height="23.245535"
       x="157.42708"
       y="126.72172" />
    <path
       style="fill:#ffffff;stroke:none;stroke-width:0.26458332px;stroke-linecap:butt;stroke-linejoin:miter;stroke-opacity:1"
       d="m 157.42708,149.96725 12.37872,12.92679 12.37871,-12.92679 z"
       id="path879"
       inkscape:connector-curvature="0"
       sodipodi:nodetypes="cccc" />
    <g
       id="g957"
       transform="translate(1.1826607)"
       style="fill:#000000">
      <g
         transform="rotate(30.950737,174.79601,136.63706)"
         id="g931"
         style="fill:#000000">
        <rect
           ry="0"
           y="148.57494"
           x="166.13628"
           height="1.4487126"
           width="7.9217615"
           id="rect890"
           style="opacity:1;fill:#000000;fill-opacity:1;stroke:none;stroke-width:0.08038595;stroke-miterlimit:4;stroke-dasharray:none;stroke-opacity:1" />
        <rect
           y="149.98955"
           x="169.3848"
           height="4.1330914"
           width="1.4246933"
           id="rect896"
           style="opacity:1;fill:#000000;fill-opacity:1;stroke:none;stroke-width:0.06832662;stroke-miterlimit:4;stroke-dasharray:none;stroke-opacity:1" />
        <path
           sodipodi:nodetypes="cccccc"
           inkscape:connector-curvature="0"
           id="path898"
           d="m 169.38476,154.12265 -0.65569,0.93997 1.37538,1.19598 1.36078,-1.19598 -0.65578,-0.93997 z"
           style="fill:#000000;stroke:none;stroke-width:0.05051069px;stroke-linecap:butt;stroke-linejoin:miter;stroke-opacity:1" />
        <rect
           style="opacity:1;fill:#000000;fill-opacity:1;stroke:none;stroke-width:0.40000001;stroke-miterlimit:4;stroke-dasharray:none;stroke-opacity:1"
           id="rect907"
           width="3.4244277"
           height="13.830132"
           x="168.39647"
           y="135.36983" />
        <path
           style="fill:#000000;stroke:none;stroke-width:0.26458332px;stroke-linecap:butt;stroke-linejoin:miter;stroke-opacity:1"
           d="m 168.39647,135.36982 h 3.42442 l -1.71221,-1.86224 z"
           id="path924"
           inkscape:connector-curvature="0"
           sodipodi:nodetypes="cccc" />
      </g>
      <g
         id="g943"
         transform="matrix(-0.85760981,0.51430089,0.51430089,0.85760981,242.08447,-70.441963)"
         style="fill:#000000">
        <rect
           style="opacity:1;fill:#000000;fill-opacity:1;stroke:none;stroke-width:0.08038595;stroke-miterlimit:4;stroke-dasharray:none;stroke-opacity:1"
           id="rect933"
           width="7.9217615"
           height="1.4487126"
           x="166.13628"
           y="148.57494"
           ry="0" />
        <rect
           style="opacity:1;fill:#000000;fill-opacity:1;stroke:none;stroke-width:0.06832662;stroke-miterlimit:4;stroke-dasharray:none;stroke-opacity:1"
           id="rect935"
           width="1.4246933"
           height="4.1330914"
           x="169.3848"
           y="149.98955" />
        <path
           style="fill:#000000;stroke:none;stroke-width:0.05051069px;stroke-linecap:butt;stroke-linejoin:miter;stroke-opacity:1"
           d="m 169.38476,154.12265 -0.65569,0.93997 1.37538,1.19598 1.36078,-1.19598 -0.65578,-0.93997 z"
           id="path937"
           inkscape:connector-curvature="0"
           sodipodi:nodetypes="cccccc" />
        <rect
           y="135.36983"
           x="168.39647"
           height="13.830132"
           width="3.4244277"
           id="rect939"
           style="opacity:1;fill:#000000;fill-opacity:1;stroke:none;stroke-width:0.40000001;stroke-miterlimit:4;stroke-dasharray:none;stroke-opacity:1" />
        <path
           sodipodi:nodetypes="cccc"
           inkscape:connector-curvature="0"
           id="path941"
           d="m 168.39647,135.36982 h 3.42442 l -1.71221,-1.86224 z"
           style="fill:#000000;stroke:none;stroke-width:0.26458332px;stroke-linecap:butt;stroke-linejoin:miter;stroke-opacity:1" />
      </g>
    </g>
    <g
       id="g1012"
       style="fill:#ffffff">
      <rect
         y="215.81653"
         x="83.722183"
         height="10.824754"
         width="30.001007"
         id="rect959"
         style="opacity:1;fill:#ffffff;fill-opacity:1;stroke:none;stroke-width:0.31514037;stroke-miterlimit:4;stroke-dasharray:none;stroke-opacity:1" />
      <path
         id="rect961"
         d="m 83.989705,231.65252 v 9.02064 h 2.192113 l 9.202023,-9.02064 z m 18.323425,0 8.84288,9.02064 h 2.43344 v -9.02064 z"
         style="opacity:1;fill:#ffffff;fill-opacity:1;stroke:none;stroke-width:0.40000001;stroke-miterlimit:4;stroke-dasharray:none;stroke-opacity:1"
         inkscape:connector-curvature="0" />
      <path
         id="path970"
         d="m 98.790867,230.22547 -10.065312,11.94617 3.790247,5.64089 h 12.550138 l 3.79024,-5.64089 z m -1.032251,2.87604 h 2.064505 v 13.34686 h -2.064505 z m -3.282676,2.87606 h 1.621949 v 10.39722 H 94.47594 Z m 7.00791,0 h 1.62195 v 10.39722 h -1.62195 z m -9.541204,3.28153 h 1.432606 v 7.11569 h -1.432606 z m 12.263834,0 h 1.43261 v 7.11569 h -1.43261 z"
         style="fill:#ffffff;stroke:none;stroke-width:0.29199618px;stroke-linecap:butt;stroke-linejoin:miter;stroke-opacity:1"
         inkscape:connector-curvature="0" />
    </g>
  </g>
</svg>
