solid OpenSCAD_Model
  facet normal 0 0 -1
    outer loop
      vertex -5.7368 57.9346 0
      vertex -7 56.6299 0
      vertex -6.56071 57.1609 0
    endloop
  endfacet
  facet normal 0 -0 -1
    outer loop
      vertex -5 58.4699 0
      vertex -5 43.5301 0
      vertex -7 56.6299 0
    endloop
  endfacet
  facet normal 0 0 -1
    outer loop
      vertex -5 58.4699 0
      vertex -7 56.6299 0
      vertex -5.7368 57.9346 0
    endloop
  endfacet
  facet normal 0 0 -1
    outer loop
      vertex -7 56.6299 0
      vertex -5 43.5301 0
      vertex -7 45.3701 0
    endloop
  endfacet
  facet normal 0 0 -1
    outer loop
      vertex -7 45.3701 0
      vertex -5.7368 44.0654 0
      vertex -6.56071 44.8391 0
    endloop
  endfacet
  facet normal 0 -0 -1
    outer loop
      vertex -5 42 0
      vertex -5 0 0
      vertex -7 40 0
    endloop
  endfacet
  facet normal 0 0 -1
    outer loop
      vertex -7 45.3701 0
      vertex -5 43.5301 0
      vertex -5.7368 44.0654 0
    endloop
  endfacet
  facet normal 0 -0 -1
    outer loop
      vertex 7 40 0
      vertex 7 0 0
      vertex 5 0 0
    endloop
  endfacet
  facet normal 0 0 -1
    outer loop
      vertex 5.7368 44.0654 0
      vertex 7 45.3701 0
      vertex 6.56071 44.8391 0
    endloop
  endfacet
  facet normal -0 0 -1
    outer loop
      vertex 5.7368 44.0654 0
      vertex 5 43.5301 0
      vertex 7 45.3701 0
    endloop
  endfacet
  facet normal -0 -0 -1
    outer loop
      vertex 6.56071 57.1609 0
      vertex 7 56.6299 0
      vertex 5.7368 57.9346 0
    endloop
  endfacet
  facet normal -0 -0 -1
    outer loop
      vertex 5.7368 57.9346 0
      vertex 7 56.6299 0
      vertex 5 58.4699 0
    endloop
  endfacet
  facet normal -0 -0 -1
    outer loop
      vertex 7 56.6299 0
      vertex 7 45.3701 0
      vertex 5 58.4699 0
    endloop
  endfacet
  facet normal -0 0 -1
    outer loop
      vertex 7 45.3701 0
      vertex 5 43.5301 0
      vertex 5 58.4699 0
    endloop
  endfacet
  facet normal 0 0 -1
    outer loop
      vertex -7 40 0
      vertex -5 0 0
      vertex -7 0 0
    endloop
  endfacet
  facet normal -0 0 -1
    outer loop
      vertex 7 40 0
      vertex 5 0 0
      vertex 5 42 0
    endloop
  endfacet
  facet normal -0 0 1
    outer loop
      vertex -6.56071 57.1609 0.2
      vertex -7 56.6299 0.2
      vertex -5.7368 57.9346 0.2
    endloop
  endfacet
  facet normal -0 0 1
    outer loop
      vertex -7 56.6299 0.2
      vertex -5 43.5301 0.2
      vertex -5 58.4699 0.2
    endloop
  endfacet
  facet normal -0 0 1
    outer loop
      vertex -5.7368 57.9346 0.2
      vertex -7 56.6299 0.2
      vertex -5 58.4699 0.2
    endloop
  endfacet
  facet normal -0 0 1
    outer loop
      vertex -7 45.3701 0.2
      vertex -5 43.5301 0.2
      vertex -7 56.6299 0.2
    endloop
  endfacet
  facet normal -0 -0 1
    outer loop
      vertex -6.56071 44.8391 0.2
      vertex -5.7368 44.0654 0.2
      vertex -7 45.3701 0.2
    endloop
  endfacet
  facet normal -0 0 1
    outer loop
      vertex -7 40 0.2
      vertex -5 0 0.2
      vertex -5 42 0.2
    endloop
  endfacet
  facet normal -0 -0 1
    outer loop
      vertex -5.7368 44.0654 0.2
      vertex -5 43.5301 0.2
      vertex -7 45.3701 0.2
    endloop
  endfacet
  facet normal 0 0 1
    outer loop
      vertex 5 0 0.2
      vertex 7 0 0.2
      vertex 7 40 0.2
    endloop
  endfacet
  facet normal 0 -0 1
    outer loop
      vertex 6.56071 44.8391 0.2
      vertex 7 45.3701 0.2
      vertex 5.7368 44.0654 0.2
    endloop
  endfacet
  facet normal 0 0 1
    outer loop
      vertex 7 45.3701 0.2
      vertex 5 43.5301 0.2
      vertex 5.7368 44.0654 0.2
    endloop
  endfacet
  facet normal 0 0 1
    outer loop
      vertex 5.7368 57.9346 0.2
      vertex 7 56.6299 0.2
      vertex 6.56071 57.1609 0.2
    endloop
  endfacet
  facet normal 0 0 1
    outer loop
      vertex 5 58.4699 0.2
      vertex 7 56.6299 0.2
      vertex 5.7368 57.9346 0.2
    endloop
  endfacet
  facet normal 0 0 1
    outer loop
      vertex 5 58.4699 0.2
      vertex 7 45.3701 0.2
      vertex 7 56.6299 0.2
    endloop
  endfacet
  facet normal 0 0 1
    outer loop
      vertex 5 58.4699 0.2
      vertex 5 43.5301 0.2
      vertex 7 45.3701 0.2
    endloop
  endfacet
  facet normal 0 0 1
    outer loop
      vertex -7 0 0.2
      vertex -5 0 0.2
      vertex -7 40 0.2
    endloop
  endfacet
  facet normal 0 0 1
    outer loop
      vertex 5 42 0.2
      vertex 5 0 0.2
      vertex 7 40 0.2
    endloop
  endfacet
  facet normal -0.587779 0.809021 0
    outer loop
      vertex -5.7368 57.9346 0
      vertex -5 58.4699 0.2
      vertex -5 58.4699 0
    endloop
  endfacet
  facet normal -0.587779 0.809021 0
    outer loop
      vertex -5.7368 57.9346 0
      vertex -5.7368 57.9346 0.2
      vertex -5 58.4699 0.2
    endloop
  endfacet
  facet normal -0.684543 0.728973 0
    outer loop
      vertex -6.56071 57.1609 0
      vertex -5.7368 57.9346 0.2
      vertex -5.7368 57.9346 0
    endloop
  endfacet
  facet normal -0.684543 0.728973 0
    outer loop
      vertex -6.56071 57.1609 0
      vertex -6.56071 57.1609 0.2
      vertex -5.7368 57.9346 0.2
    endloop
  endfacet
  facet normal -0.770523 0.637412 0
    outer loop
      vertex -7 56.6299 0
      vertex -6.56071 57.1609 0.2
      vertex -6.56071 57.1609 0
    endloop
  endfacet
  facet normal -0.770523 0.637412 0
    outer loop
      vertex -7 56.6299 0
      vertex -7 56.6299 0.2
      vertex -6.56071 57.1609 0.2
    endloop
  endfacet
  facet normal -1 0 0
    outer loop
      vertex -7 45.3701 0
      vertex -7 56.6299 0.2
      vertex -7 56.6299 0
    endloop
  endfacet
  facet normal -1 0 0
    outer loop
      vertex -7 45.3701 0
      vertex -7 45.3701 0.2
      vertex -7 56.6299 0.2
    endloop
  endfacet
  facet normal -0.770523 -0.637412 0
    outer loop
      vertex -6.56071 44.8391 0
      vertex -7 45.3701 0.2
      vertex -7 45.3701 0
    endloop
  endfacet
  facet normal -0.770523 -0.637412 0
    outer loop
      vertex -6.56071 44.8391 0
      vertex -6.56071 44.8391 0.2
      vertex -7 45.3701 0.2
    endloop
  endfacet
  facet normal -0.684543 -0.728973 0
    outer loop
      vertex -5.7368 44.0654 0
      vertex -6.56071 44.8391 0.2
      vertex -6.56071 44.8391 0
    endloop
  endfacet
  facet normal -0.684543 -0.728973 0
    outer loop
      vertex -5.7368 44.0654 0
      vertex -5.7368 44.0654 0.2
      vertex -6.56071 44.8391 0.2
    endloop
  endfacet
  facet normal -0.587779 -0.809021 0
    outer loop
      vertex -5 43.5301 0
      vertex -5.7368 44.0654 0.2
      vertex -5.7368 44.0654 0
    endloop
  endfacet
  facet normal -0.587779 -0.809021 0
    outer loop
      vertex -5 43.5301 0
      vertex -5 43.5301 0.2
      vertex -5.7368 44.0654 0.2
    endloop
  endfacet
  facet normal 1 0 0
    outer loop
      vertex -5 58.4699 0
      vertex -5 43.5301 0.2
      vertex -5 43.5301 0
    endloop
  endfacet
  facet normal 1 0 -0
    outer loop
      vertex -5 58.4699 0
      vertex -5 58.4699 0.2
      vertex -5 43.5301 0.2
    endloop
  endfacet
  facet normal 0.684543 -0.728973 0
    outer loop
      vertex 6.56071 44.8391 0
      vertex 5.7368 44.0654 0.2
      vertex 5.7368 44.0654 0
    endloop
  endfacet
  facet normal 0.684543 -0.728973 0
    outer loop
      vertex 6.56071 44.8391 0
      vertex 6.56071 44.8391 0.2
      vertex 5.7368 44.0654 0.2
    endloop
  endfacet
  facet normal 0.770523 -0.637412 0
    outer loop
      vertex 7 45.3701 0
      vertex 6.56071 44.8391 0.2
      vertex 6.56071 44.8391 0
    endloop
  endfacet
  facet normal 0.770523 -0.637412 0
    outer loop
      vertex 7 45.3701 0
      vertex 7 45.3701 0.2
      vertex 6.56071 44.8391 0.2
    endloop
  endfacet
  facet normal 1 0 0
    outer loop
      vertex 7 56.6299 0
      vertex 7 45.3701 0.2
      vertex 7 45.3701 0
    endloop
  endfacet
  facet normal 1 0 -0
    outer loop
      vertex 7 56.6299 0
      vertex 7 56.6299 0.2
      vertex 7 45.3701 0.2
    endloop
  endfacet
  facet normal 0.770523 0.637412 0
    outer loop
      vertex 6.56071 57.1609 0
      vertex 7 56.6299 0.2
      vertex 7 56.6299 0
    endloop
  endfacet
  facet normal 0.770523 0.637412 -0
    outer loop
      vertex 6.56071 57.1609 0
      vertex 6.56071 57.1609 0.2
      vertex 7 56.6299 0.2
    endloop
  endfacet
  facet normal 0.684543 0.728973 0
    outer loop
      vertex 5.7368 57.9346 0
      vertex 6.56071 57.1609 0.2
      vertex 6.56071 57.1609 0
    endloop
  endfacet
  facet normal 0.684543 0.728973 -0
    outer loop
      vertex 5.7368 57.9346 0
      vertex 5.7368 57.9346 0.2
      vertex 6.56071 57.1609 0.2
    endloop
  endfacet
  facet normal 0.587779 0.809021 0
    outer loop
      vertex 5 58.4699 0
      vertex 5.7368 57.9346 0.2
      vertex 5.7368 57.9346 0
    endloop
  endfacet
  facet normal 0.587779 0.809021 -0
    outer loop
      vertex 5 58.4699 0
      vertex 5 58.4699 0.2
      vertex 5.7368 57.9346 0.2
    endloop
  endfacet
  facet normal -1 0 0
    outer loop
      vertex 5 43.5301 0
      vertex 5 58.4699 0.2
      vertex 5 58.4699 0
    endloop
  endfacet
  facet normal -1 0 0
    outer loop
      vertex 5 43.5301 0
      vertex 5 43.5301 0.2
      vertex 5 58.4699 0.2
    endloop
  endfacet
  facet normal 0.587779 -0.809021 0
    outer loop
      vertex 5.7368 44.0654 0
      vertex 5 43.5301 0.2
      vertex 5 43.5301 0
    endloop
  endfacet
  facet normal 0.587779 -0.809021 0
    outer loop
      vertex 5.7368 44.0654 0
      vertex 5.7368 44.0654 0.2
      vertex 5 43.5301 0.2
    endloop
  endfacet
  facet normal -0.707107 0.707107 0
    outer loop
      vertex -7 40 0
      vertex -5 42 0.2
      vertex -5 42 0
    endloop
  endfacet
  facet normal -0.707107 0.707107 0
    outer loop
      vertex -7 40 0
      vertex -7 40 0.2
      vertex -5 42 0.2
    endloop
  endfacet
  facet normal -1 0 0
    outer loop
      vertex -7 0 0
      vertex -7 40 0.2
      vertex -7 40 0
    endloop
  endfacet
  facet normal -1 0 0
    outer loop
      vertex -7 0 0
      vertex -7 0 0.2
      vertex -7 40 0.2
    endloop
  endfacet
  facet normal 0 -1 0
    outer loop
      vertex -5 0 0
      vertex -7 0 0.2
      vertex -7 0 0
    endloop
  endfacet
  facet normal 0 -1 0
    outer loop
      vertex -5 0 0
      vertex -5 0 0.2
      vertex -7 0 0.2
    endloop
  endfacet
  facet normal 1 0 0
    outer loop
      vertex -5 42 0
      vertex -5 0 0.2
      vertex -5 0 0
    endloop
  endfacet
  facet normal 1 0 -0
    outer loop
      vertex -5 42 0
      vertex -5 42 0.2
      vertex -5 0 0.2
    endloop
  endfacet
  facet normal 0.707107 0.707107 0
    outer loop
      vertex 5 42 0
      vertex 7 40 0.2
      vertex 7 40 0
    endloop
  endfacet
  facet normal 0.707107 0.707107 -0
    outer loop
      vertex 5 42 0
      vertex 5 42 0.2
      vertex 7 40 0.2
    endloop
  endfacet
  facet normal -1 0 0
    outer loop
      vertex 5 0 0
      vertex 5 42 0.2
      vertex 5 42 0
    endloop
  endfacet
  facet normal -1 0 0
    outer loop
      vertex 5 0 0
      vertex 5 0 0.2
      vertex 5 42 0.2
    endloop
  endfacet
  facet normal 0 -1 0
    outer loop
      vertex 7 0 0
      vertex 5 0 0.2
      vertex 5 0 0
    endloop
  endfacet
  facet normal 0 -1 0
    outer loop
      vertex 7 0 0
      vertex 7 0 0.2
      vertex 5 0 0.2
    endloop
  endfacet
  facet normal 1 0 0
    outer loop
      vertex 7 40 0
      vertex 7 0 0.2
      vertex 7 0 0
    endloop
  endfacet
  facet normal 1 0 -0
    outer loop
      vertex 7 40 0
      vertex 7 40 0.2
      vertex 7 0 0.2
    endloop
  endfacet
endsolid OpenSCAD_Model
